…
dir_info(path = IN_DIR,
         glob = "*.txt",
         recurse = T) %>% select(1:2)
```

    ## # A tibble: 134 × 2
    ##    path                                                                 type 
    ##    <fs::path>                                                           <fct>
    ##  1 hts2_input/Columbus_object_results.txt                               file 
    ##  2 hts2_input/FGFR2_Full_ineq/HT000619_cellHTS2.txt                     file 
    ##  3 hts2_input/FGFR2_Full_ineq/HT000621_cellHTS2.txt                     file 
    ##  4 hts2_input/FGFR2_Full_ineq/HT000623_cellHTS2.txt                     file 
    ##  5 hts2_input/FGFR2_Full_ineq/HT000625_cellHTS2.txt                     file 
    ##  6 hts2_input/FGFR2_Full_ineq/HT000627_cellHTS2.txt                     file 
    ##  7 hts2_input/FGFR2_Full_ineq/HT000629_cellHTS2.txt                     file 
    ##  8 hts2_input/FGFR2_Full_ineq/Platelist.txt                             file 
    ##  9 hts2_input/FGFR2_Full_spots_Cell_Area_TBP_norm/HT000619_cellHTS2.txt file 
    ## 10 hts2_input/FGFR2_Full_spots_Cell_Area_TBP_norm/HT000621_cellHTS2.txt file 
    ## # … with 124 more rows
…
dir_info(path = IN_DIR,
         glob = "*_cellHTS2.txt",
         recurse = T) %>% select(1:2)
```

    ## # A tibble: 114 × 2
    ##    path                                                                 type 
    ##    <fs::path>                                                           <fct>
    ##  1 hts2_input/FGFR2_Full_ineq/HT000619_cellHTS2.txt                     file 
    ##  2 hts2_input/FGFR2_Full_ineq/HT000621_cellHTS2.txt                     file 
    ##  3 hts2_input/FGFR2_Full_ineq/HT000623_cellHTS2.txt                     file 
    ##  4 hts2_input/FGFR2_Full_ineq/HT000625_cellHTS2.txt                     file 
    ##  5 hts2_input/FGFR2_Full_ineq/HT000627_cellHTS2.txt                     file 
    ##  6 hts2_input/FGFR2_Full_ineq/HT000629_cellHTS2.txt                     file 
    ##  7 hts2_input/FGFR2_Full_spots_Cell_Area_TBP_norm/HT000619_cellHTS2.txt file 
    ##  8 hts2_input/FGFR2_Full_spots_Cell_Area_TBP_norm/HT000621_cellHTS2.txt file 
    ##  9 hts2_input/FGFR2_Full_spots_Cell_Area_TBP_norm/HT000623_cellHTS2.txt file 
    ## 10 hts2_input/FGFR2_Full_spots_Cell_Area_TBP_norm/HT000625_cellHTS2.txt file 
    ## # … with 104 more rows
…
